project_name,cohesion_type,percentile,type,r:0,r:1,r:2,r:3,r:4,r:5,r:6,r:7,r:8,r:9
springboot,jaccard,q25,class,0.01763,0.01750,0.01717,0.01715,0.01808,0.01811,0.01808,0.01804,0.01805,0.01805
springboot,jaccard,q50,class,0.05175,0.05133,0.05164,0.05156,0.04870,0.04858,0.04866,0.04845,0.04842,0.04825
springboot,jaccard,q75,class,0.07080,0.07048,0.07056,0.07041,0.07196,0.07099,0.07095,0.07094,0.07094,0.07087
springboot,jaccard,q95,class,0.06662,0.06664,0.06651,0.06659,0.06503,0.06473,0.06453,0.06446,0.06448,0.06437
springboot,jaccard,q25,method,0.02271,0.02272,0.02277,0.02275,0.02290,0.02264,0.02259,0.02256,0.02257,0.02248
springboot,jaccard,q50,method,0.03262,0.03256,0.03260,0.03258,0.02966,0.02920,0.02912,0.02905,0.02907,0.02905
springboot,jaccard,q75,method,0.07080,0.07048,0.07056,0.07041,0.07196,0.07099,0.07095,0.07094,0.07094,0.07087
springboot,jaccard,q95,method,0.01013,0.01010,0.01002,0.01000,0.00964,0.00949,0.00946,0.00946,0.00946,0.00944
springboot,cosine,q25,class,0.03275,0.03247,0.03192,0.03187,0.03341,0.03343,0.03338,0.03330,0.03332,0.03331
springboot,cosine,q50,class,0.10907,0.10816,0.10853,0.10844,0.10219,0.10181,0.10207,0.10133,0.10127,0.10092
springboot,cosine,q75,class,0.17509,0.17443,0.17411,0.17383,0.17854,0.17622,0.17623,0.17633,0.17633,0.17605
springboot,cosine,q95,class,0.22856,0.22882,0.22860,0.22867,0.22304,0.22235,0.22190,0.22168,0.22167,0.22164
springboot,cosine,q25,method,0.05104,0.05108,0.05114,0.05108,0.05084,0.05024,0.05014,0.05013,0.05013,0.04993
springboot,cosine,q50,method,0.08258,0.08243,0.08260,0.08255,0.07520,0.07396,0.07374,0.07356,0.07363,0.07356
springboot,cosine,q75,method,0.03216,0.03218,0.03203,0.03200,0.03224,0.03231,0.03225,0.03216,0.03216,0.03180
springboot,cosine,q95,method,0.02475,0.02468,0.02449,0.02444,0.02362,0.02328,0.02321,0.02319,0.02319,0.02313
